…
```
Simple feature collection with 2396 features and 3 fields
geometry type:  POLYGON
dimension:      XY
bbox:           xmin: 237904.5 ymin: 4428006 xmax: 313476.5 ymax: 4545687
CRS:            EPSG:32614
# A tibble: 2,396 x 4
# Groups:   site_no [401]
   site_no      year nearby_pumping                                     geometry
 * <chr>       <int>          <dbl>                                <POLYGON [m]>
 1 4000121013…  2007           571. ((286128 4431225, 286123.6 4431057, 286110.…
 2 4000121013…  2008           772. ((286128 4431225, 286123.6 4431057, 286110.…
 3 4000121013…  2009           500. ((286128 4431225, 286123.6 4431057, 286110.…
 4 4000121013…  2010           451. ((286128 4431225, 286123.6 4431057, 286110.…
 5 4000121013…  2011           545. ((286128 4431225, 286123.6 4431057, 286110.…
 6 4000121013…  2012          1028. ((286128 4431225, 286123.6 4431057, 286110.…
 7 4001301013…  2007           485. ((278847.4 4433844, 278843 4433675, 278829.…
 8 4001301013…  2008           515. ((278847.4 4433844, 278843 4433675, 278829.…
 9 4001301013…  2009           351. ((278847.4 4433844, 278843 4433675, 278829.…
10 4001301013…  2010           374. ((278847.4 4433844, 278843 4433675, 278829.…
# … with 2,386 more rows
```
…
#--- take a look ---#
dplyr::select(reg_data, site_no, year, dwt_dif, nearby_pumping)
```

```
# A tibble: 2,022 x 4
# Groups:   site_no [230]
   site_no          year dwt_dif nearby_pumping
   <chr>           <dbl>   <dbl>          <dbl>
 1 400130101374401  2011   NA              358.
 2 400134101483501  2007    2.87          2038.
 3 400134101483501  2008    0.78          2320.
 4 400134101483501  2009   -2.45          2096.
 5 400134101483501  2010    3.97          2432.
 6 400134101483501  2011    1.84          2634.
 7 400134101483501  2012   -1.35           985.
 8 400134101483501  2013   44.8             NA 
 9 400134101483501  2014  -26.7             NA 
10 400134101483501  2015   NA               NA 
# … with 2,012 more rows
```
…
```
# A tibble: 82 x 2
   county_code length_in_m
 * <chr>             <dbl>
 1 001              77221.
 2 003              77290.
 3 007              36764.
 4 011             255441.
 5 015             161726.
 6 017              30585.
 7 019             389226.
 8 021             155794.
 9 023              78587.
10 025              92030.
# … with 72 more rows
```
…
```r
KS_County_wells %>% 
  group_by(COUNTYFP) %>% 
  summarize(af_used = sum(af_used, na.rm = TRUE)) 
```

```
Simple feature collection with 105 features and 2 fields
geometry type:  MULTIPOLYGON
dimension:      XY
bbox:           xmin: -102.0517 ymin: 36.99308 xmax: -94.59193 ymax: 40.00308
CRS:            EPSG:4269
# A tibble: 105 x 3
   COUNTYFP af_used                                                     geometry
   <fct>      <dbl>                                           <MULTIPOLYGON [°]>
 1 001           0  (((-95.51931 37.82026, -95.51897 38.03823, -95.07788 38.037…
 2 003           0  (((-95.50833 38.39028, -95.06583 38.38994, -95.07788 38.037…
 3 005         771. (((-95.56413 39.65287, -95.33974 39.65298, -95.11519 39.652…
 4 007        4972. (((-99.0126 37.47042, -98.46466 37.47101, -98.46493 37.3841…
 5 009       61083. (((-99.03297 38.69676, -98.48611 38.69688, -98.47991 38.681…
 6 011           0  (((-95.08808 37.73248, -95.07969 37.8198, -95.07788 38.0377…
 7 013         480. (((-95.78811 40.00047, -95.78457 40.00046, -95.3399 40.0000…
 8 015         343. (((-97.15248 37.91273, -97.15291 38.0877, -96.84077 38.0856…
 9 017           0  (((-96.83765 38.34864, -96.81951 38.52245, -96.35378 38.521…
10 019           0  (((-96.52487 37.30273, -95.9644 37.29923, -95.96427 36.9992…
# … with 95 more rows
```
…
```
Simple feature collection with 55 features and 2 fields
geometry type:  GEOMETRY
dimension:      XY
bbox:           xmin: 203228.6 ymin: 4470941 xmax: 736832.9 ymax: 4822687
CRS:            EPSG:26915
# A tibble: 55 x 3
   HUC_CODE aw_acres                                                    geometry
   <chr>       <dbl>                                              <GEOMETRY [m]>
 1 07020009  251140. POLYGON ((421317.4 4797758, 421179.2 4797632, 421079.3 479…
 2 07040008  165000  POLYGON ((602943.6 4817205, 602935.1 4817167, 602875.1 481…
 3 07060001  105224. MULTIPOLYGON (((631611.9 4817707, 631609.2 4817706, 631519…
 4 07060002  140192. POLYGON ((593286.7 4817067, 593403.8 4817047, 593583.8 481…
 5 07060003  149000  MULTIPOLYGON (((646504.9 4762382, 646518 4762383, 646554.8…
 6 07060004  162121. POLYGON ((653200.4 4718423, 652967.7 4718504, 652457.7 471…
 7 07060005  142428. POLYGON ((735347.8 4642385, 734779.1 4642296, 734459 46422…
 8 07060006  159628. POLYGON ((692755.3 4694862, 692788.3 4694758, 692788.3 469…
 9 07080101  115574. POLYGON ((667472 4558778, 667391.8 4558691, 667221.7 45585…
10 07080102  160017. POLYGON ((635032.8 4675786, 635247.8 4675644, 635367.8 467…
# … with 45 more rows
```
…
```
# A tibble: 12,730 x 2
   rowid  tmax
   <chr> <dbl>
 1 1      34.4
 2 1      34.5
 3 1      34.5
 4 1      34.5
 5 1      34.5
 6 1      34.6
 7 1      34.6
 8 1      34.6
 9 1      34.6
10 1      34.6
# … with 12,720 more rows
```

Note that `rowid` represents the row number of polygons in `KS_county_sv`. Now, we can easily summarize the data by polygon (county). For example, the code below finds a simple average of tmax by county.


```r
tmax_by_county_df %>% 
  group_by(rowid) %>% 
  summarize(tmax = mean(tmax))
```

```
# A tibble: 105 x 2
   rowid  tmax
   <chr> <dbl>
 1 1      34.3
 2 10     33.4
 3 100    30.7
 4 101    34.1
 5 102    32.6
 6 103    34.2
 7 104    33.8
 8 105    35.2
 9 11     34.8
10 12     29.3
# … with 95 more rows
```
…
Note that this code works for a raster object with any number of layers including the single-layer case we saw above. 

We can then summarize the extracted data by polygon and raster layer.   


```r
tmax_long_from_stack %>% 
  group_by(rowid, layer) %>% 
  summarize(tmax = mean(value))
```

```
# A tibble: 210 x 3
# Groups:   rowid [105]
   rowid layer  tmax
   <chr> <chr> <dbl>
 1 1     1      34.3
 2 1     2      29.4
 3 10    1      33.4
 4 10    2      29.7
 5 100   1      30.7
 6 100   2      29.9
 7 101   1      34.1
 8 101   2      28.6
 9 102   1      32.6
10 102   2      30.6
# … with 200 more rows
```
…
```r
#--- pivot to a longer format ---#
(
tmax_long <- pivot_longer(
  tmax_all_combined, 
  -c(id, coverage_fraction), 
  names_to = "date",
  values_to = "tmax"
  )  
)
```

```
# A tibble: 30,302 x 4
   id    coverage_fraction date                                  tmax
   <chr>             <dbl> <chr>                                <dbl>
 1 1                 0.146 PRISM_tmax_stable_4kmD2_20180701_bil  34.4
 2 1                 0.146 PRISM_tmax_stable_4kmD2_20180702_bil  29.6
 3 1                 0.407 PRISM_tmax_stable_4kmD2_20180701_bil  34.6
 4 1                 0.407 PRISM_tmax_stable_4kmD2_20180702_bil  29.6
 5 1                 0.381 PRISM_tmax_stable_4kmD2_20180701_bil  34.7
 6 1                 0.381 PRISM_tmax_stable_4kmD2_20180702_bil  29.7
 7 1                 0.355 PRISM_tmax_stable_4kmD2_20180701_bil  34.6
 8 1                 0.355 PRISM_tmax_stable_4kmD2_20180702_bil  29.6
 9 1                 0.330 PRISM_tmax_stable_4kmD2_20180701_bil  34.7
10 1                 0.330 PRISM_tmax_stable_4kmD2_20180702_bil  29.6
# … with 30,292 more rows
```

And then find coverage-weighted tmax by date:


```r
(
tmax_long %>% 
  group_by(id, date) %>% 
  summarize(tmax = sum(tmax * coverage_fraction) / sum(coverage_fraction))
)
```

```
# A tibble: 210 x 3
# Groups:   id [105]
   id    date                                  tmax
   <chr> <chr>                                <dbl>
 1 1     PRISM_tmax_stable_4kmD2_20180701_bil  34.3
 2 1     PRISM_tmax_stable_4kmD2_20180702_bil  29.4
 3 10    PRISM_tmax_stable_4kmD2_20180701_bil  33.4
 4 10    PRISM_tmax_stable_4kmD2_20180702_bil  29.6
 5 100   PRISM_tmax_stable_4kmD2_20180701_bil  30.8
 6 100   PRISM_tmax_stable_4kmD2_20180702_bil  29.9
 7 101   PRISM_tmax_stable_4kmD2_20180701_bil  34.1
 8 101   PRISM_tmax_stable_4kmD2_20180702_bil  28.6
 9 102   PRISM_tmax_stable_4kmD2_20180701_bil  32.6
10 102   PRISM_tmax_stable_4kmD2_20180702_bil  30.6
# … with 200 more rows
```
…
