Chapter 1 R as GIS: Demonstrations | R as GIS for Economists
…
Simple feature collection with 2396 features and 3 fields
geometry type:  POLYGON
dimension:      XY
bbox:           xmin: 237904.5 ymin: 4428006 xmax: 313476.5 ymax: 4545687
CRS:            EPSG:32614
# A tibble: 2,396 x 4
# Groups:   site_no [401]
   site_no      year nearby_pumping                                     geometry
 * <chr>       <int>          <dbl>                                <POLYGON [m]>
 1 4000121013…  2007           571. ((286128 4431225, 286123.6 4431057, 286110.…
 2 4000121013…  2008           772. ((286128 4431225, 286123.6 4431057, 286110.…
 3 4000121013…  2009           500. ((286128 4431225, 286123.6 4431057, 286110.…
 4 4000121013…  2010           451. ((286128 4431225, 286123.6 4431057, 286110.…
 5 4000121013…  2011           545. ((286128 4431225, 286123.6 4431057, 286110.…
 6 4000121013…  2012          1028. ((286128 4431225, 286123.6 4431057, 286110.…
 7 4001301013…  2007           485. ((278847.4 4433844, 278843 4433675, 278829.…
 8 4001301013…  2008           515. ((278847.4 4433844, 278843 4433675, 278829.…
 9 4001301013…  2009           351. ((278847.4 4433844, 278843 4433675, 278829.…
10 4001301013…  2010           374. ((278847.4 4433844, 278843 4433675, 278829.…
# … with 2,386 more rows
…
#--- take a look ---#
dplyr::select(reg_data, site_no, year, dwt_dif, nearby_pumping)

# A tibble: 2,022 x 4
# Groups:   site_no [230]
   site_no          year dwt_dif nearby_pumping
   <chr>           <dbl>   <dbl>          <dbl>
 1 400130101374401  2011   NA              358.
 2 400134101483501  2007    2.87          2038.
 3 400134101483501  2008    0.78          2320.
 4 400134101483501  2009   -2.45          2096.
 5 400134101483501  2010    3.97          2432.
 6 400134101483501  2011    1.84          2634.
 7 400134101483501  2012   -1.35           985.
 8 400134101483501  2013   44.8             NA 
 9 400134101483501  2014  -26.7             NA 
10 400134101483501  2015   NA               NA 
# … with 2,012 more rows
…
(
rail_length_county <- mutate(
    rails_IL_segmented, 
    length_in_m = as.numeric(st_length(rails_IL_segmented)),
  ) %>% 
  #--- group by county ID ---#
  group_by(county_code) %>% 
  #--- sum rail length by county ---#
  summarize(length_in_m = sum(length_in_m)) %>% 
  #--- geometry no longer needed ---#
  st_drop_geometry()
)

# A tibble: 82 x 2
   county_code length_in_m
 * <chr>             <dbl>
 1 001              77221.
 2 003              77290.
 3 007              36764.
 4 011             255441.
 5 015             161726.
 6 017              30585.
 7 019             389226.
 8 021             155794.
 9 023              78587.
10 025              92030.
# … with 72 more rows
…
