9.4 Daymet with daymetr and FedData | R as GIS for Economists
…
  return(temp_daymet)
}  

Here is what the function returns for the 1st row of random_points:

get_daymet(1)

# A tibble: 1,095 x 11
    year  yday dayl..s. prcp..mm.day. srad..W.m.2. swe..kg.m.2. tmax..deg.c.
   <dbl> <dbl>    <dbl>         <dbl>        <dbl>        <dbl>        <dbl>
 1  2000     1   33523.             0         230.            0         12  
 2  2000     2   33523.             0         240             0         11.5
 3  2000     3   33523.             0         243.            0         13.5
 4  2000     4   33523.             1         230.            0         13  
 5  2000     5   33523.             0         243.            0         14  
 6  2000     6   33523.             0         243.            0         13  
 7  2000     7   33523.             0         246.            0         14  
 8  2000     8   33869.             0         230.            0         13  
 9  2000     9   33869.             0         227.            0         12.5
10  2000    10   33869.             0         214.            0         14  
#  with 1,085 more rows, and 4 more variables: tmin..deg.c. <dbl>,
#   vp..Pa. <dbl>, site_id <int>, date <date>

You can now simply loop over the rows.

(
daymet_all_points <- lapply(1:nrow(random_points), get_daymet) %>% 
  #--- need to combine the list of data.frames into a single data.frame ---#
  bind_rows()
)

# A tibble: 10,950 x 11
    year  yday dayl..s. prcp..mm.day. srad..W.m.2. swe..kg.m.2. tmax..deg.c.
   <dbl> <dbl>    <dbl>         <dbl>        <dbl>        <dbl>        <dbl>
 1  2000     1   33523.             0         230.            0         12  
 2  2000     2   33523.             0         240             0         11.5
 3  2000     3   33523.             0         243.            0         13.5
 4  2000     4   33523.             1         230.            0         13  
 5  2000     5   33523.             0         243.            0         14  
 6  2000     6   33523.             0         243.            0         13  
 7  2000     7   33523.             0         246.            0         14  
 8  2000     8   33869.             0         230.            0         13  
 9  2000     9   33869.             0         227.            0         12.5
10  2000    10   33869.             0         214.            0         14  
#  with 10,940 more rows, and 4 more variables: tmin..deg.c. <dbl>,
#   vp..Pa. <dbl>, site_id <int>, date <date>
…
