1.4 Demonstration 4: The Impact of Railroad Presence on Corn Planted Acreage | R as GIS for Economists
…
(
rail_length_county <- mutate(
    rails_IL_segmented, 
    length_in_m = as.numeric(st_length(rails_IL_segmented)),
  ) %>% 
  #--- group by county ID ---#
  group_by(county_code) %>% 
  #--- sum rail length by county ---#
  summarize(length_in_m = sum(length_in_m)) %>% 
  #--- geometry no longer needed ---#
  st_drop_geometry()
)

# A tibble: 82 x 2
   county_code length_in_m
 * <chr>             <dbl>
 1 001              77221.
 2 003              77290.
 3 007              36764.
 4 011             255441.
 5 015             161726.
 6 017              30585.
 7 019             389226.
 8 021             155794.
 9 023              78587.
10 025              92030.
# … with 72 more rows
…
