1.1 Demonstration 1: The impact of groundwater pumping on depth to water table | R as GIS for Economists
…
Simple feature collection with 2396 features and 3 fields
Geometry type: POLYGON
Dimension:     XY
Bounding box:  xmin: 237904.5 ymin: 4428006 xmax: 313476.5 ymax: 4545687
Projected CRS: WGS 84 / UTM zone 14N
# A tibble: 2,396 x 4
# Groups:   site_no [401]
   site_no      year nearby_pumping                                                  geometry
 * <chr>       <int>          <dbl>                                             <POLYGON [m]>
 1 4000121013  2007           571. ((286128 4431225, 286123.6 4431057, 286110.4 4430889, 28
 2 4000121013  2008           772. ((286128 4431225, 286123.6 4431057, 286110.4 4430889, 28
 3 4000121013  2009           500. ((286128 4431225, 286123.6 4431057, 286110.4 4430889, 28
 4 4000121013  2010           451. ((286128 4431225, 286123.6 4431057, 286110.4 4430889, 28
 5 4000121013  2011           545. ((286128 4431225, 286123.6 4431057, 286110.4 4430889, 28
 6 4000121013  2012          1028. ((286128 4431225, 286123.6 4431057, 286110.4 4430889, 28
 7 4001301013  2007           485. ((278847.4 4433844, 278843 4433675, 278829.8 4433507, 27
 8 4001301013  2008           515. ((278847.4 4433844, 278843 4433675, 278829.8 4433507, 27
 9 4001301013  2009           351. ((278847.4 4433844, 278843 4433675, 278829.8 4433507, 27
10 4001301013  2010           374. ((278847.4 4433844, 278843 4433675, 278829.8 4433507, 27
#  with 2,386 more rows
…
#--- take a look ---#
dplyr::select(reg_data, site_no, year, dwt_dif, nearby_pumping)

# A tibble: 2,022 x 4
# Groups:   site_no [230]
   site_no          year dwt_dif nearby_pumping
   <chr>           <dbl>   <dbl>          <dbl>
 1 400130101374401  2011  NA               358.
 2 400134101483501  2007   2.87           2038.
 3 400134101483501  2008   0.780          2320.
 4 400134101483501  2009  -2.45           2096.
 5 400134101483501  2010   3.97           2432.
 6 400134101483501  2011   1.84           2634.
 7 400134101483501  2012  -1.35            985.
 8 400134101483501  2013  44.8              NA 
 9 400134101483501  2014 -26.7              NA 
10 400134101483501  2015  NA                NA 
#  with 2,012 more rows
…
