1.4 Demonstration 4: The Impact of Railroad Presence on Corn Planted Acreage | R as GIS for Economists
…
(
rail_length_county <- 
  mutate(
    rails_IL_segmented,
    length_in_m = as.numeric(st_length(rails_IL_segmented))
  )  %>%
  #--- geometry no longer needed ---#
  st_drop_geometry() %>% 
  #--- group by county ID ---#
  group_by(county_code) %>%
  #--- sum rail length by county ---#
  summarize(length_in_m = sum(length_in_m))
)

# A tibble: 82 x 2
   county_code length_in_m
   <chr>             <dbl>
 1 001              77189.
 2 003              77333.
 3 007              36686.
 4 011             255173.
 5 015             161397.
 6 017              30611.
 7 019             389061.
 8 021             155706.
 9 023              78532.
10 025              92002.
#  with 72 more rows
…
