7.10 Extracting values from stars for vector data | R as GIS for Economists
…
As you can see each date forms a column of extracted values for the points because the third dimension of tmax_MI is Dates object. So, you can easily turn the outcome to an sf object with date as Date object as follows.

pivot_longer(extracted_tmax, - sfc, names_to = "date", values_to = "tmax") %>% 
  st_as_sf() %>% 
  mutate(date = ymd(date))

Simple feature collection with 10000 features and 2 fields
geometry type:  POINT
dimension:      XY
bbox:           xmin: -90.26031 ymin: 41.71712 xmax: -82.47312 ymax: 47.43735
geographic CRS: NAD83
# A tibble: 10,000 x 3
                    sfc date        tmax
 *          <POINT []> <date>     <dbl>
 1 (-83.34935 43.49406) 2009-01-01  25.5
 2 (-83.34935 43.49406) 2009-01-02  25.7
 3 (-83.34935 43.49406) 2009-01-03  24.8
 4 (-83.34935 43.49406) 2009-01-04  27.1
 5 (-83.34935 43.49406) 2009-01-05  29.1
 6 (-83.34935 43.49406) 2009-01-06  23.0
 7 (-83.34935 43.49406) 2009-01-07  25.2
 8 (-83.34935 43.49406) 2009-01-08  23.7
 9 (-83.34935 43.49406) 2009-01-09  23.3
10 (-83.34935 43.49406) 2009-01-10  32.2
#  with 9,990 more rows
…
