5.2 Extracting Values from Raster Layers for Vector Data | R as GIS for Economists
…
In order to make the results usable, you can process them to get a single data.frame, taking advantage of dplyr::bind_rows() to combine the list of the datasets into one dataset. In doing so, you can use .id option to create a new identifier column that links each row to its original data (data.table users can use rbindlist() with the idcol option).

(
tmax_by_county_df <- tmax_by_county %>%  
  #--- apply unlist to the lists to have vectors as the list elements ---#
  lapply(unlist) %>% 
  #--- convert vectors to data.frames ---#
  lapply(as_tibble) %>% 
  #--- combine the list of data.frames ---#
  bind_rows(., .id = "rowid") %>% 
  #--- rename the value variable ---# 
  rename(tmax = value)
)

# A tibble: 12,730 x 2
   rowid  tmax
   <chr> <dbl>
 1 1      34.4
 2 1      34.5
 3 1      34.5
 4 1      34.5
 5 1      34.5
 6 1      34.6
 7 1      34.6
 8 1      34.6
 9 1      34.6
10 1      34.6
#  with 12,720 more rows

Note that rowid represents the row number of polygons in KS_county_sv. Now, we can easily summarize the data by polygon (county). For example, the code below finds a simple average of tmax by county.

tmax_by_county_df %>% 
  group_by(rowid) %>% 
  summarize(tmax = mean(tmax))

# A tibble: 105 x 2
   rowid  tmax
   <chr> <dbl>
 1 1      34.3
 2 10     33.4
 3 100    30.7
 4 101    34.1
 5 102    32.6
 6 103    34.2
 7 104    33.8
 8 105    35.2
 9 11     34.8
10 12     29.3
#  with 95 more rows
…
Note that this code works for a raster object with any number of layers including the single-layer case we saw above.

We can then summarize the extracted data by polygon and raster layer.

tmax_long_from_stack %>% 
  group_by(rowid, layer) %>% 
  summarize(tmax = mean(value))

# A tibble: 210 x 3
# Groups:   rowid [105]
   rowid layer  tmax
   <chr> <chr> <dbl>
 1 1     1      34.3
 2 1     2      29.4
 3 10    1      33.4
 4 10    2      29.7
 5 100   1      30.7
 6 100   2      29.9
 7 101   1      34.1
 8 101   2      28.6
 9 102   1      32.6
10 102   2      30.6
#  with 200 more rows
…
In order to find the coverage-weighted tmax by date, you can first pivot it to a long format using dplyr::pivot_longer().

#--- pivot to a longer format ---#
(
tmax_long <- pivot_longer(
  tmax_all_combined, 
  -c(id, coverage_fraction), 
  names_to = "date",
  values_to = "tmax"
  )  
)

# A tibble: 30,302 x 4
   id    coverage_fraction date                                  tmax
   <chr>             <dbl> <chr>                                <dbl>
 1 1                 0.146 PRISM_tmax_stable_4kmD2_20180701_bil  34.4
 2 1                 0.146 PRISM_tmax_stable_4kmD2_20180702_bil  29.6
 3 1                 0.407 PRISM_tmax_stable_4kmD2_20180701_bil  34.6
 4 1                 0.407 PRISM_tmax_stable_4kmD2_20180702_bil  29.6
 5 1                 0.381 PRISM_tmax_stable_4kmD2_20180701_bil  34.7
 6 1                 0.381 PRISM_tmax_stable_4kmD2_20180702_bil  29.7
 7 1                 0.355 PRISM_tmax_stable_4kmD2_20180701_bil  34.6
 8 1                 0.355 PRISM_tmax_stable_4kmD2_20180702_bil  29.6
 9 1                 0.330 PRISM_tmax_stable_4kmD2_20180701_bil  34.7
10 1                 0.330 PRISM_tmax_stable_4kmD2_20180702_bil  29.6
#  with 30,292 more rows

And then find coverage-weighted tmax by date:

(
tmax_long %>% 
  group_by(id, date) %>% 
  summarize(tmax = sum(tmax * coverage_fraction) / sum(coverage_fraction))
)

# A tibble: 210 x 3
# Groups:   id [105]
   id    date                                  tmax
   <chr> <chr>                                <dbl>
 1 1     PRISM_tmax_stable_4kmD2_20180701_bil  34.3
 2 1     PRISM_tmax_stable_4kmD2_20180702_bil  29.4
 3 10    PRISM_tmax_stable_4kmD2_20180701_bil  33.4
 4 10    PRISM_tmax_stable_4kmD2_20180702_bil  29.6
 5 100   PRISM_tmax_stable_4kmD2_20180701_bil  30.8
 6 100   PRISM_tmax_stable_4kmD2_20180702_bil  29.9
 7 101   PRISM_tmax_stable_4kmD2_20180701_bil  34.1
 8 101   PRISM_tmax_stable_4kmD2_20180702_bil  28.6
 9 102   PRISM_tmax_stable_4kmD2_20180701_bil  32.6
10 102   PRISM_tmax_stable_4kmD2_20180702_bil  30.6
#  with 200 more rows
…
