1.4 Extraction using exactextractr::exact_extract() | R as GIS for Economists
…
You can easily convert it into a long format, which is typically more convenient for further data processing.

extracted_values_long <- pivot_longer(extracted_values_df, c(-rowid, -coverage_fraction), names_to = "date", values_to = "tmax") %>% 
  #--- convert from character to Date ---#
  mutate(date = as.Date(date))

You can then summarize the data for each polygon-date combination. For example, if you would like coverage-weighted mean of tmax for each polygon, you can do the following:

extracted_values_long %>% 
  group_by(rowid, date) %>% 
  summarize(sum(tmax * coverage_fraction)/sum(coverage_fraction))

# A tibble: 1,050 x 3
# Groups:   rowid [105]
   rowid date       `sum(tmax * coverage_fraction)/sum(coverage_fraction)`
   <chr> <date>                                                      <dbl>
 1 1     2009-01-01                                                  0.704
 2 1     2009-01-02                                                  8.25 
 3 1     2009-01-03                                                 13.2  
 4 1     2009-01-04                                                 19.4  
 5 1     2009-01-05                                                 -1.74 
 6 1     2009-01-06                                                  1.24 
 7 1     2009-01-07                                                  2.36 
 8 1     2009-01-08                                                  7.33 
 9 1     2009-01-09                                                  7.66 
10 1     2009-01-10                                                 15.8  
# … with 1,040 more rows
…
As you can see, the outcome has only the mean of the extracted values weighted by coverage_fraction, with only one row per polygon. Since the \(n\)th row of the outcome is \(n\)th polygon of the sf, it can be easily merged with the sf just like the previous no-summary case. Post-extraction process is just as easy as it was for the no-summary case.

(
mean_tmax_long <- extacted_mean %>% 
  #--- recover dates  ---#
  setnames(names(.), dates_ls) %>% 
  #--- create rowid ---#
  mutate(rowid = 1:nrow(.)) %>% 
  #--- wide to long ---#
  pivot_longer(-rowid, names_to = "date", values_to = "tmax")
)

# A tibble: 1,050 x 3
   rowid date         tmax
   <int> <chr>       <dbl>
 1     1 2009-01-01  0.704
 2     1 2009-01-02  8.25 
 3     1 2009-01-03 13.2  
 4     1 2009-01-04 19.4  
 5     1 2009-01-05 -1.74 
 6     1 2009-01-06  1.24 
 7     1 2009-01-07  2.36 
 8     1 2009-01-08  7.33 
 9     1 2009-01-09  7.66 
10     1 2009-01-10 15.8  
# … with 1,040 more rows
…
We can now use group operations using the dplyr functionality to get the frequency of each land use type value:

extracted_cdl_KS_df %>% 
  pivot_longer(c(-rowid, -coverage_fraction), names_to = "year", values_to = "value") %>% 
  group_by(rowid, value, year) %>% 
  summarize(count = n())

# A tibble: 6,296 x 4
# Groups:   rowid, value [3,427]
   rowid value year         count
   <chr> <int> <chr>        <int>
 1 1         1 CDL_2015_20 133397
 2 1         1 CDL_2016_20 159844
 3 1         4 CDL_2015_20   3846
 4 1         4 CDL_2016_20   3036
 5 1         5 CDL_2015_20 229788
 6 1         5 CDL_2016_20 244820
 7 1         6 CDL_2016_20      1
 8 1        24 CDL_2015_20  51825
 9 1        24 CDL_2016_20  16829
10 1        26 CDL_2015_20  53261
# … with 6,286 more rows
…
