B ggplot2 minimals | R as GIS for Economists
…
        R as GIS for Economists

      Show table of contents

B ggplot2 minimals

Note: This section does not provide a complete treatment of the basics of the ggplot2 package. Rather, it provides the minimal knowledge of the package so that readers who are not familiar with the package can still understand the codes for map making presented in Chapter 8.

The ggplot2 package is a general and extensive data visualization tool. It is very popular among R users due to its elegance in and ease of use in generating high-quality figures. The ggplot2 package is designed following the “grammar of graphics,” which makes it possible to visualize data in an easy and consistent manner irrespective of the type of figures generated, whether it is a simple scatter plot or a complicated map. This means that learning the basics of how ggplot2 works directly helps in creating maps as well. This chapter goes over the basics of how ggplot2 works in general.

In ggplot2, you first specify what data to use and then specify how to use the data for visualization depending on what types of figures you intend to make using geom_*(). As a simple example, let’s use mpg data to create a simple scatter plot. Here is what mpg dataset looks like:

mpg 

# A tibble: 234 × 11
   manufacturer model      displ  year   cyl trans drv     cty   hwy fl    class
   <chr>        <chr>      <dbl> <int> <int> <chr> <chr> <int> <int> <chr> <chr>
 1 audi         a4           1.8  1999     4 auto… f        18    29 p     comp…
 2 audi         a4           1.8  1999     4 manu… f        21    29 p     comp…
 3 audi         a4           2    2008     4 manu… f        20    31 p     comp…
 4 audi         a4           2    2008     4 auto… f        21    30 p     comp…
 5 audi         a4           2.8  1999     6 auto… f        16    26 p     comp…
 6 audi         a4           2.8  1999     6 manu… f        18    26 p     comp…
 7 audi         a4           3.1  2008     6 auto… f        18    27 p     comp…
 8 audi         a4 quattro   1.8  1999     4 manu… 4        18    26 p     comp…
 9 audi         a4 quattro   1.8  1999     4 auto… 4        16    25 p     comp…
10 audi         a4 quattro   2    2008     4 manu… 4        20    28 p     comp…
# … with 224 more rows
…
