Chapter 5 Spatial Interactions of Vector and Raster Data | R as GIS for Economists
…
As you can see, now you have fraction column to the resulting data.frame and you can find area-weighted summary of the extracted values like this:

tmax_by_county_from_stack %>%
  group_by(ID) %>%
  summarize(
    tmax_0701 = sum(fraction * PRISM_tmax_stable_4kmD2_20180701_bil) / sum(fraction),
    tmax_0702 = sum(fraction * PRISM_tmax_stable_4kmD2_20180702_bil) / sum(fraction)
  )

# A tibble: 105 × 3
      ID tmax_0701 tmax_0702
   <dbl>     <dbl>     <dbl>
 1     1      33.5      30.1
 2     2      35.7      28.8
 3     3      32.6      30.6
 4     4      32.9      29.0
 5     5      34.8      28.3
 6     6      33.0      30.0
 7     7      34.2      30.9
 8     8      31.7      30.1
 9     9      34.3      29.4
10    10      34.4      30.5
# ℹ 95 more rows
…
For each element of the list, you see value and coverage_fraction. value is the tmax value of the intersecting raster cells, and coverage_fraction is the fraction of the intersecting area relative to the full raster grid, which can help find coverage-weighted summary of the extracted values (like fraction variable when you use terra::extract() with exact = TRUE).

We can take advantage of dplyr::bind_rows() to combine the list of the datasets into a single data.frame. In doing so, you can use .id option to create a new identifier column that links each row to its original data.

(
  #--- combine ---#
  tmax_combined <- bind_rows(tmax_by_county, .id = "id") %>%
    as_tibble()
)

# A tibble: 15,149 × 3
   id    value coverage_fraction
   <chr> <dbl>             <dbl>
 1 1      33.3            0.0237
 2 1      33.3            0.118 
 3 1      33.2            0.119 
 4 1      33.2            0.117 
 5 1      33.2            0.115 
 6 1      33.1            0.117 
 7 1      33.2            0.117 
 8 1      33.2            0.116 
 9 1      33.1            0.112 
10 1      33.1            0.110 
# ℹ 15,139 more rows
…
Note that id value of i represents ith element of the list, which in turn corresponds to ith polygon in the polygons sf data. Let’s summarize the data by id and then merge it back to the polygons sf data. Here, we calculate coverage-weighted mean of tmax.

#--- weighted mean ---#
(
  tmax_by_id <- tmax_combined %>%
    #--- convert from character to numeric  ---#
    mutate(id = as.numeric(id)) %>%
    #--- group summary ---#
    group_by(id) %>%
    summarise(tmax_aw = sum(value * coverage_fraction) / sum(coverage_fraction))
)

# A tibble: 105 × 2
      id tmax_aw
   <dbl>   <dbl>
 1     1    33.5
 2     2    35.7
 3     3    32.6
 4     4    32.9
 5     5    34.8
 6     6    33.0
 7     7    34.2
 8     8    31.7
 9     9    34.3
10    10    34.4
# ℹ 95 more rows
…
In order to find the coverage-weighted tmax by date, you can first pivot it to a long format using dplyr::pivot_longer().

#--- pivot to a longer format ---#
(
  tmax_long <- pivot_longer(
    tmax_all_combined,
    -c(id, coverage_fraction),
    names_to = "date",
    values_to = "tmax"
  )
)

# A tibble: 30,298 × 4
   id    coverage_fraction date                                  tmax
   <chr>             <dbl> <chr>                                <dbl>
 1 1              0.000721 PRISM_tmax_stable_4kmD2_20180701_bil  34.2
 2 1              0.000721 PRISM_tmax_stable_4kmD2_20180702_bil  29.6
 3 1              0.711    PRISM_tmax_stable_4kmD2_20180701_bil  34.2
 4 1              0.711    PRISM_tmax_stable_4kmD2_20180702_bil  29.6
 5 1              0.716    PRISM_tmax_stable_4kmD2_20180701_bil  34.2
 6 1              0.716    PRISM_tmax_stable_4kmD2_20180702_bil  29.6
 7 1              0.716    PRISM_tmax_stable_4kmD2_20180701_bil  34.3
 8 1              0.716    PRISM_tmax_stable_4kmD2_20180702_bil  29.7
 9 1              0.717    PRISM_tmax_stable_4kmD2_20180701_bil  34.3
10 1              0.717    PRISM_tmax_stable_4kmD2_20180702_bil  29.7
# ℹ 30,288 more rows

And then find coverage-weighted tmax by date:

(
  tmax_long %>%
    group_by(id, date) %>%
    summarize(tmax = sum(tmax * coverage_fraction) / sum(coverage_fraction))
)

# A tibble: 210 × 3
# Groups:   id [105]
   id    date                                  tmax
   <chr> <chr>                                <dbl>
 1 1     PRISM_tmax_stable_4kmD2_20180701_bil  34.2
 2 1     PRISM_tmax_stable_4kmD2_20180702_bil  29.7
 3 10    PRISM_tmax_stable_4kmD2_20180701_bil  33.6
 4 10    PRISM_tmax_stable_4kmD2_20180702_bil  31.2
 5 100   PRISM_tmax_stable_4kmD2_20180701_bil  35.2
 6 100   PRISM_tmax_stable_4kmD2_20180702_bil  29.8
 7 101   PRISM_tmax_stable_4kmD2_20180701_bil  29.9
 8 101   PRISM_tmax_stable_4kmD2_20180702_bil  30.0
 9 102   PRISM_tmax_stable_4kmD2_20180701_bil  33.3
10 102   PRISM_tmax_stable_4kmD2_20180702_bil  30.2
# ℹ 200 more rows
…
