Chapter 3 Spatial Interactions of Vector Data: Subsetting and Joining | R as GIS for Economists
…
As you can see in the resulting dataset, all the unique polygon - point intersecting combinations comprise the observations. For each of the polygons, you will have as many observations as the number of wells that intersect with the polygon. Once you join the two layers, you can find statistics by polygon (county here). Since we want groundwater extraction by county, the following does the job.

KS_County_wells %>% 
  group_by(COUNTYFP) %>% 
  summarize(af_used = sum(af_used, na.rm = TRUE)) 

Simple feature collection with 105 features and 2 fields
Geometry type: POLYGON
Dimension:     XY
Bounding box:  xmin: -102.0517 ymin: 36.99308 xmax: -94.59193 ymax: 40.00308
Geodetic CRS:  NAD83
# A tibble: 105 × 3
   COUNTYFP af_used                                                     geometry
   <fct>      <dbl>                                                <POLYGON [°]>
 1 001           0  ((-95.5255 37.73276, -95.08808 37.73248, -95.07969 37.8198,…
 2 003           0  ((-95.51897 38.03823, -95.07788 38.03771, -95.06583 38.3899…
 3 005         771. ((-95.57035 39.41905, -95.18089 39.41922, -94.99785 39.4188…
 4 007        4972. ((-99.0115 37.38426, -99.00138 37.37502, -99.0003 36.99936,…
 5 009       61083. ((-99.03241 38.34833, -99.03231 38.26123, -98.91258 38.2610…
 6 011           0  ((-95.08801 37.67452, -94.61787 37.67311, -94.61789 37.6822…
 7 013         480. ((-95.78894 39.653, -95.56413 39.65287, -95.33974 39.65298,…
 8 015         343. ((-97.15333 37.47554, -96.52569 37.4764, -96.5253 37.60701,…
 9 017           0  ((-96.84077 38.08562, -96.52278 38.08637, -96.3581 38.08582…
10 019           0  ((-96.52558 36.99868, -96.50029 36.99864, -96.21757 36.9990…
# … with 95 more rows
…
Simple feature collection with 55 features and 2 fields
Geometry type: GEOMETRY
Dimension:     XY
Bounding box:  xmin: 203228.6 ymin: 4470941 xmax: 736832.9 ymax: 4822687
Projected CRS: NAD83 / UTM zone 15N
# A tibble: 55 × 3
   HUC_CODE aw_acres                                                    geometry
   <chr>       <dbl>                                              <GEOMETRY [m]>
 1 07020009  251185. POLYGON ((421060.3 4797550, 420940.3 4797420, 420860.3 479…
 2 07040008  165000  POLYGON ((602922.4 4817166, 602862.4 4816996, 602772.4 481…
 3 07060001  105234. MULTIPOLYGON (((649333.8 4761761, 648933.7 4761621, 648793…
 4 07060002  140201. MULTIPOLYGON (((593780.7 4816946, 594000.7 4816865, 594380…
 5 07060003  149000  MULTIPOLYGON (((692011.6 4712966, 691981.6 4712956, 691881…
 6 07060004  162123. POLYGON ((652046.5 4718813, 651916.4 4718783, 651786.4 471…
 7 07060005  142428. POLYGON ((734140.4 4642126, 733620.4 4641926, 733520.3 464…
 8 07060006  159635. POLYGON ((673976.9 4651911, 673950.7 4651910, 673887.8 465…
 9 07080101  115572. POLYGON ((666760.8 4558401, 666630.9 4558362, 666510.8 455…
10 07080102  160008. POLYGON ((576151.1 4706650, 575891 4706810, 575741 4706890…
# … with 45 more rows
…
