3.3 Spatial Join | R as GIS for Economists
…
As you can see in the resulting dataset, all the unique polygon - point intersecting combinations comprise the observations. For each of the polygons, you will have as many observations as the number of wells that intersect with the polygon. Once you join the two layers, you can find statistics by polygon (county here). Since we want groundwater extraction by county, the following does the job.

KS_County_wells %>% 
  group_by(COUNTYFP) %>% 
  summarize(af_used = sum(af_used, na.rm = TRUE)) 

Simple feature collection with 105 features and 2 fields
geometry type:  MULTIPOLYGON
dimension:      XY
bbox:           xmin: -102.0517 ymin: 36.99308 xmax: -94.59193 ymax: 40.00308
geographic CRS: NAD83
# A tibble: 105 x 3
   COUNTYFP af_used                                                     geometry
   <fct>      <dbl>                                           <MULTIPOLYGON []>
 1 001           0  (((-95.51931 37.82026, -95.51897 38.03823, -95.07788 38.037
 2 003           0  (((-95.50833 38.39028, -95.06583 38.38994, -95.07788 38.037
 3 005         771. (((-95.56413 39.65287, -95.33974 39.65298, -95.11519 39.652
 4 007        4972. (((-99.0126 37.47042, -98.46466 37.47101, -98.46493 37.3841
 5 009       61083. (((-99.03297 38.69676, -98.48611 38.69688, -98.47991 38.681
 6 011           0  (((-95.08808 37.73248, -95.07969 37.8198, -95.07788 38.0377
 7 013         480. (((-95.78811 40.00047, -95.78457 40.00046, -95.3399 40.0000
 8 015         343. (((-97.15248 37.91273, -97.15291 38.0877, -96.84077 38.0856
 9 017           0  (((-96.83765 38.34864, -96.81951 38.52245, -96.35378 38.521
10 019           0  (((-96.52487 37.30273, -95.9644 37.29923, -95.96427 36.9992
#  with 95 more rows
…
