…
```r
KS_County_wells %>% 
  group_by(COUNTYFP) %>% 
  summarize(af_used = sum(af_used, na.rm = TRUE)) 
```

```
Simple feature collection with 105 features and 2 fields
geometry type:  MULTIPOLYGON
dimension:      XY
bbox:           xmin: -102.0517 ymin: 36.99308 xmax: -94.59193 ymax: 40.00308
CRS:            EPSG:4269
# A tibble: 105 x 3
   COUNTYFP af_used                                                     geometry
   <fct>      <dbl>                                           <MULTIPOLYGON [°]>
 1 001           0  (((-95.51931 37.82026, -95.51897 38.03823, -95.07788 38.037…
 2 003           0  (((-95.50833 38.39028, -95.06583 38.38994, -95.07788 38.037…
 3 005         771. (((-95.56413 39.65287, -95.33974 39.65298, -95.11519 39.652…
 4 007        4972. (((-99.0126 37.47042, -98.46466 37.47101, -98.46493 37.3841…
 5 009       61083. (((-99.03297 38.69676, -98.48611 38.69688, -98.47991 38.681…
 6 011           0  (((-95.08808 37.73248, -95.07969 37.8198, -95.07788 38.0377…
 7 013         480. (((-95.78811 40.00047, -95.78457 40.00046, -95.3399 40.0000…
 8 015         343. (((-97.15248 37.91273, -97.15291 38.0877, -96.84077 38.0856…
 9 017           0  (((-96.83765 38.34864, -96.81951 38.52245, -96.35378 38.521…
10 019           0  (((-96.52487 37.30273, -95.9644 37.29923, -95.96427 36.9992…
# … with 95 more rows
```
…
```
Simple feature collection with 55 features and 2 fields
geometry type:  GEOMETRY
dimension:      XY
bbox:           xmin: 203228.6 ymin: 4470941 xmax: 736832.9 ymax: 4822687
CRS:            EPSG:26915
# A tibble: 55 x 3
   HUC_CODE aw_acres                                                    geometry
   <chr>       <dbl>                                              <GEOMETRY [m]>
 1 07020009  251140. POLYGON ((421317.4 4797758, 421179.2 4797632, 421079.3 479…
 2 07040008  165000  POLYGON ((602943.6 4817205, 602935.1 4817167, 602875.1 481…
 3 07060001  105224. MULTIPOLYGON (((631611.9 4817707, 631609.2 4817706, 631519…
 4 07060002  140192. POLYGON ((593286.7 4817067, 593403.8 4817047, 593583.8 481…
 5 07060003  149000  MULTIPOLYGON (((646504.9 4762382, 646518 4762383, 646554.8…
 6 07060004  162121. POLYGON ((653200.4 4718423, 652967.7 4718504, 652457.7 471…
 7 07060005  142428. POLYGON ((735347.8 4642385, 734779.1 4642296, 734459 46422…
 8 07060006  159628. POLYGON ((692755.3 4694862, 692788.3 4694758, 692788.3 469…
 9 07080101  115574. POLYGON ((667472 4558778, 667391.8 4558691, 667221.7 45585…
10 07080102  160017. POLYGON ((635032.8 4675786, 635247.8 4675644, 635367.8 467…
# … with 45 more rows
```
